{
    "about": {"type":"dict", "required":true,"schema": {
        "datasetID":{"type":"string", "required":true, "empty": false},
        "datasetName":{"type":"string", "required":true, "empty": false},
        "datasetURI":{"type":"string","required":false},
        "description":{"type":"string","required":false},
        "citation":{"type":"string","required":false},
        "publicationDate":{"type":"string","required":false},
        "humanSubjectsResearch": {"type":"boolean", "required":false},
        "license":{"type":"string", "required":false},
        "source":{"type":"string", "required":false},
        "sourceURI":{"type":"string", "required":false},
        "approximateSize":{"type":"string", "required":false},
        "applicationDomain":{"type":"string","required":false},
        "datasetVersion":{"type":"string", "required":true, "default":"1.0"},
        "datasetSchemaVersion":{"type":"string", "required":true, "default":"4.0.0"},
        "redacted":{"type":"boolean", "required":false},
        "digest":{"type":"string", "required":false}
    }},

    "dataResources":{"type":"list","required":true,"schema":{"type":"dict","required": true,"schema":{
        "resID":{"type":"string","required":true},
        "resPath":{"type":"string","required":true},
        "resType":{"type":"string","required":true, "allowed":[
            "image",
            "video",
            "audio",
            "speech",
            "text",
            "graph",
            "edgeList",
            "table",
            "timeseries",
            "raw"
            ], "allow_unknown":true},
        "resFormat":{"type":"dict", "required":true, "keysrules": {"type":"string"}, "valuesrules": {"type":"list"}},
        "isCollection":{"type":"boolean","required":true,"default":false},

        "columns": {
            "type":"list",
            "required": false,
            "dependencies": {"resType":["table","timeseries","edgeList"]},
            "schema": {"type":"dict", "required": true, "schema": {
                "colIndex":{"type":"integer", "required":true},
                "colName":{"type":"string", "required":true, "empty":false},
                "colDescription":{"type":"string", "required":false},
                "colType":{"required":true, "oneof":[
                    {"type":"string","allowed":[
                        "boolean",
                        "integer",
                        "real",
                        "string",
                        "categorical",
                        "dateTime",
                        "realVector",
                        "json",
                        "geojson",
                        "unknown"]}
                ]},
                "role":{"type":"list","required":true,"schema":{"type":"string","allowed":[
                    "index",
                    "multiIndex",
                    "key",
                    "attribute",
                    "suggestedTarget",
                    "timeIndicator",
                    "locationIndicator",
                    "boundaryIndicator",
                    "interval",
                    "instanceWeight",
                    "boundingPolygon",
                    "suggestedPrivilegedData",
                    "suggestedGroupingKey",
                    "edgeSource",
                    "directedEdgeSource",
                    "undirectedEdgeSource",
                    "multiEdgeSource",
                    "simpleEdgeSource",
                    "edgeTarget",
                    "directedEdgeTarget",
                    "undirectedEdgeTarget",
                    "multiEdgeTarget",
                    "simpleEdgeTarget"
                ], "allow_unknown":true}},
                "refersTo":{"required":false, "schema":{
                    "resID":{"type":"string","required":true},
                    "resObject":{"required":true, "oneof":[
                        {"type":"string", "allowed":[
                            "item"
                        ]},
                        {"type":"dict", "schema":{
                            "nodeAttribute":{"type":"string"}}},
                        {"type":"dict", "schema":{
                            "edgeAttribute":{"type":"string"}}},
                        {"type":"dict", "schema":{
                            "columnIndex":{"type":"integer"}}},
                        {"type":"dict", "schema":{
                            "columnName":{"type":"string"}}}
                    ]}
                }},
                "timeGranularity":{"type":"dict", "required":false, "schema":{
                    "value":{"type":"number", "required":true},
                    "units":{"type":"string", "required":true, "allowed":[
                        "seconds",
                        "minutes",
                        "days",
                        "weeks",
                        "years",
                        "unspecified"
                    ]
                }}}
        }}
    }}}},

    "qualities":{"type":"list","required":false,"schema":{"type":"dict","required":true,"schema":{
        "qualName":{"type":"string","required":true},
        "qualValue":{"required":true},
        "qualValueType":{"type":"string","required":true,"allowed":["boolean","integer","real","string","dict"]},
        "qualValueUnits":{"type":"string","required":false},
        "restrictedTo":{"type":"dict","required":false,"schema":{
            "resID":{"type":"string","required":true},
            "resComponent":{"oneof":[
                {"type":"dict","required":false,"schema":{
                    "columnIndex":{"type":"integer"}}},
                {"type":"dict","required":false,"schema":{
                    "columnName":{"type":"string"}}},
                {"type":"string","required":false,"allowed":["nodes","edges"]},
                {"type":"dict","required":false,"schema":{
                    "nodeAttribute":{"type":"string"}}},
                {"type":"dict","required":false,"schema":{
                    "edgeAttribute":{"type":"string"}}},
                {"type":"dict","required":false,"schema":{
                    "selector":{"type":"list"}}}
            ]}
        }}
    }}}
}
